%YAML 1.1
%TAG !u! tag:unity3d.com,2011:
--- !u!1045 &1
EditorBuildSettings:
  m_ObjectHideFlags: 0
  serializedVersion: 2
  m_Scenes:
  - enabled: 1
    path: Assets/Start.unity
    guid: f89f581bfcd8674478d72d8114805471
  - enabled: 1
    path: Assets/daa.unity
    guid: 46915f6f9a10fde40ae41d43c9e0b163
  - enabled: 1
    path: Assets/GameOver.unity
    guid: 0c5f1f7d553521649ba05efdd39b9ddd
